Métodos de Reamostragem:
…
glm_final_wrkflw_1$.metrics

## [[1]]
## # A tibble: 2 × 4
##   .metric .estimator .estimate .config             
##   <chr>   <chr>          <dbl> <chr>               
## 1 rmse    standard      23.5   Preprocessor1_Model1
## 2 rsq     standard       0.604 Preprocessor1_Model1

glm_final_wrkflw_1$.predictions

## [[1]]
## # A tibble: 98 × 4
##    .pred  .row   mpg .config             
##    <dbl> <int> <dbl> <chr>               
##  1 0.373     1    18 Preprocessor1_Model1
##  2 0.379     3    18 Preprocessor1_Model1
##  3 0.392     6    15 Preprocessor1_Model1
##  4 0.397     8    14 Preprocessor1_Model1
##  5 0.364    15    24 Preprocessor1_Model1
##  6 0.364    17    18 Preprocessor1_Model1
##  7 0.361    18    21 Preprocessor1_Model1
##  8 0.362    19    27 Preprocessor1_Model1
##  9 0.395    28    11 Preprocessor1_Model1
## 10 0.383    38    14 Preprocessor1_Model1
## # … with 88 more rows

glm_final_wrkflw_2$.metrics

## [[1]]
## # A tibble: 2 × 4
##   .metric .estimator .estimate .config             
##   <chr>   <chr>          <dbl> <chr>               
## 1 rmse    standard     23.4    Preprocessor1_Model1
## 2 rsq     standard      0.0403 Preprocessor1_Model1

glm_final_wrkflw_2$.predictions

## [[1]]
## # A tibble: 98 × 4
##    .pred  .row   mpg .config             
##    <dbl> <int> <dbl> <chr>               
##  1 0.555     1    18 Preprocessor1_Model1
##  2 0.576     3    18 Preprocessor1_Model1
##  3 0.435     6    15 Preprocessor1_Model1
##  4 0.282     8    14 Preprocessor1_Model1
##  5 0.489    15    24 Preprocessor1_Model1
##  6 0.492    17    18 Preprocessor1_Model1
##  7 0.475    18    21 Preprocessor1_Model1
##  8 0.478    19    27 Preprocessor1_Model1
##  9 0.334    28    11 Preprocessor1_Model1
## 10 0.568    38    14 Preprocessor1_Model1
## # … with 88 more rows
…
